{
	"description": "Una brownbag sobre como interactuar con dynamoDB en la consola de Amazon",
	"id": "12",
	"speaker": "Fefo",
	"title": "Hello World-Python",
	"lastUpdateDatetime": "2015-07-20T18:37:49.459Z",
	"initDate": "2017-07-20T18:37:49.459Z"
}