{
	"description": "Una brownbag sobre como interactuar con dynamoDB en la consola de Amazon",
	"id": "4",
	"speaker": "Juampa",
	"title": "AWS-Elasticsearch",
	"lastUpdateDatetime": "2015-07-20T18:37:49.459Z",
	"initDate": "2017-08-20T18:37:49.459Z"
}