{
	"description": "Una brownbag sobre como interactuar con dynamoDB en la consola de Amazon",
	"id": "1",
	"speaker": "Juampa",
	"title": "AWS-API Gateway",
	"lastUpdateDatetime": "2017-05-18T10:20+01:00",
	"initDate": "2017-07-20T18:37:49.459Z"
}