{
	"description": "Una brownbag sobre como interactuar con dynamoDB en la consola de Amazon",
	"id": "9",
	"speaker": "Guille",
	"title": "Ionic",
	"lastUpdateDatetime": "2015-07-20T18:37:49.459Z",
	"initDate": "2017-06-20T18:37:49.459Z"
}